Verilog/Single Cycle Proccesor/Single_Cycle_Top_Tb.vcd
$date
	Thu May 16 13:49:40 2024
$end
$version
	Icarus Verilog
$end
$timescale
	1s
$end
$scope module Single_Cycle_Top_Tb $end
$var reg 1 ! clk $end
$var reg 1 " rst $end
$scope module Single_Cycle_Top $end
$var wire 1 ! clk $end
$var wire 1 " rst $end
$var wire 1 # zero $end
$var wire 32 $ SrcB [31:0] $end
$var wire 2 % ResultSrc [1:0] $end
$var wire 32 & Result [31:0] $end
$var wire 1 ' RegWrite $end
$var wire 32 ( ReadData [31:0] $end
$var wire 32 ) RD_Instr [31:0] $end
$var wire 32 * RD2_Top [31:0] $end
$var wire 32 + RD1_Top [31:0] $end
$var wire 32 , PC_Top [31:0] $end
$var wire 32 - PCTarget [31:0] $end
$var wire 1 . PCSrc $end
$var wire 32 / PCPlus4 [31:0] $end
$var wire 32 0 PCNext [31:0] $end
$var wire 1 1 MemWrite $end
$var wire 32 2 Imm_Ext_Top [31:0] $end
$var wire 2 3 ImmSrc [1:0] $end
$var wire 1 4 ALUSrc $end
$var wire 32 5 ALUResult [31:0] $end
$var wire 3 6 ALUControl_Top [2:0] $end
$scope module ALU $end
$var wire 1 7 Carry $end
$var wire 1 8 OverFlow $end
$var wire 1 # Zero $end
$var wire 32 9 Sum [31:0] $end
$var wire 32 : Result [31:0] $end
$var wire 1 ; Negative $end
$var wire 1 < Cout $end
$var wire 32 = B [31:0] $end
$var wire 3 > ALUControl [2:0] $end
$var wire 32 ? A [31:0] $end
$upscope $end
$scope module Control_Unit_Top $end
$var wire 7 @ Op [6:0] $end
$var wire 1 . PCSrc $end
$var wire 3 A funct3 [2:0] $end
$var wire 1 B funct7 $end
$var wire 1 C x $end
$var wire 1 # zero $end
$var wire 2 D ResultSrc [1:0] $end
$var wire 1 ' RegWrite $end
$var wire 1 1 MemWrite $end
$var wire 1 E Jump $end
$var wire 2 F ImmSrc [1:0] $end
$var wire 1 G Branch $end
$var wire 1 4 ALUSrc $end
$var wire 2 H ALUOp [1:0] $end
$var wire 3 I ALUControl [2:0] $end
$scope module ALU_Decoder $end
$var wire 3 J funct3 [2:0] $end
$var wire 1 B funct7 $end
$var wire 7 K op [6:0] $end
$var wire 2 L ALUOp [1:0] $end
$var wire 3 M ALUControl [2:0] $end
$upscope $end
$scope module Main_Decoder $end
$var wire 7 N Op [6:0] $end
$var wire 2 O ResultSrc [1:0] $end
$var wire 1 ' RegWrite $end
$var wire 1 1 MemWrite $end
$var wire 1 E Jump $end
$var wire 2 P ImmSrc [1:0] $end
$var wire 1 G Branch $end
$var wire 1 4 ALUSrc $end
$var wire 2 Q ALUOp [1:0] $end
$upscope $end
$upscope $end
$scope module Data_Memory $end
$var wire 32 R A [31:0] $end
$var wire 1 1 WE $end
$var wire 1 ! clk $end
$var wire 1 " rst $end
$var wire 32 S WD [31:0] $end
$var wire 32 T RD [31:0] $end
$upscope $end
$scope module Instruction_Memory $end
$var wire 1 " rst $end
$var wire 32 U RD [31:0] $end
$var wire 32 V A [31:0] $end
$upscope $end
$scope module Mux_DataMemory_to_Register $end
$var wire 32 W a0 [31:0] $end
$var wire 32 X a1 [31:0] $end
$var wire 32 Y a3 [31:0] $end
$var wire 2 Z s [1:0] $end
$var wire 32 [ c [31:0] $end
$var wire 32 \ a2 [31:0] $end
$upscope $end
$scope module Mux_PCSrc $end
$var wire 1 . s $end
$var wire 32 ] c [31:0] $end
$var wire 32 ^ b [31:0] $end
$var wire 32 _ a [31:0] $end
$upscope $end
$scope module Mux_Register_to_ALU $end
$var wire 1 4 s $end
$var wire 32 ` c [31:0] $end
$var wire 32 a b [31:0] $end
$var wire 32 b a [31:0] $end
$upscope $end
$scope module PC $end
$var wire 32 c PC_Next [31:0] $end
$var wire 1 ! clk $end
$var wire 1 " rst $end
$var reg 32 d PC [31:0] $end
$upscope $end
$scope module PC_Plus $end
$var wire 32 e a [31:0] $end
$var wire 32 f b [31:0] $end
$var wire 32 g c [31:0] $end
$upscope $end
$scope module PC_Target $end
$var wire 32 h a [31:0] $end
$var wire 32 i c [31:0] $end
$var wire 32 j b [31:0] $end
$upscope $end
$scope module Register_File $end
$var wire 5 k A1 [4:0] $end
$var wire 5 l A2 [4:0] $end
$var wire 5 m A3 [4:0] $end
$var wire 32 n WD3 [31:0] $end
$var wire 1 ' WE3 $end
$var wire 1 ! clk $end
$var wire 1 " rst $end
$var wire 32 o RD2 [31:0] $end
$var wire 32 p RD1 [31:0] $end
$upscope $end
$scope module Sign_Extend $end
$var wire 2 q ImmSrc [1:0] $end
$var wire 32 r In [31:0] $end
$var wire 32 s Imm_Ext [31:0] $end
$upscope $end
$upscope $end
$upscope $end
$enddefinitions $end
$comment Show the parameter values. $end
$dumpall
$end
#0
$dumpvars
b0 s
b0 r
b0 q
b0 p
b0 o
b0 n
b0 m
b0 l
b0 k
b0 j
bx i
bx h
bx g
b100 f
bx e
bx d
bx c
b0 b
b0 a
b0 `
bx _
bx ^
bx ]
bx \
b0 [
b0 Z
bz Y
b0 X
b0 W
bx V
b0 U
b0 T
b0 S
b0 R
b0 Q
b0 P
b0 O
b0 N
b0 M
b0 L
b0 K
b0 J
b0 I
b0 H
0G
b0 F
0E
b0 D
0C
0B
b0 A
b0 @
b0 ?
b0 >
b0 =
0<
0;
b0 :
b0 9
08
07
b0 6
b0 5
14
b0 3
b0 2
01
bx 0
bx /
0.
bx -
bx ,
b0 +
b0 *
b0 )
b0 (
0'
b0 &
b0 %
b0 $
1#
0"
0!
$end
#5
b100 0
b100 ]
b100 c
b100 /
b100 \
b100 _
b100 g
b0 -
b0 ^
b0 i
b0 ,
b0 V
b0 d
b0 e
b0 h
1!
#10
1;
17
1<
b11111111111111111111111111101100 &
b11111111111111111111111111101100 [
b11111111111111111111111111101100 n
0#
b11111111111111111111111111101100 5
b11111111111111111111111111101100 :
b11111111111111111111111111101100 R
b11111111111111111111111111101100 W
b100 0
b100 ]
b100 c
b11111111111111111111111111101100 9
b1 6
b1 >
b1 I
b1 M
0.
b10100 $
b10100 =
b10100 `
b10 3
b10 F
b10 P
b10 q
04
0C
b1 H
b1 L
b1 Q
b11000 -
b11000 ^
b11000 i
b11000 2
b11000 a
b11000 j
b11000 s
1G
b10100 *
b10100 S
b10100 b
b10100 o
b1100011 @
b1100011 K
b1100011 N
b11000 m
b101 l
bx (
bx T
bx X
b10100000000110001100011 )
b10100000000110001100011 U
b10100000000110001100011 r
1"
0!
#15
0;
b11 (
b11 T
b11 X
1#
b0 5
b0 :
b0 R
b0 W
07
b0 9
0<
1'
b0 2
b0 a
b0 j
b0 s
b0 6
b0 >
b0 I
b0 M
b0 3
b0 F
b0 P
b0 q
14
b11 &
b11 [
b11 n
b0 H
b0 L
b0 Q
b0 $
b0 =
b0 `
b1 %
b1 D
b1 O
b1 Z
0G
b0 *
b0 S
b0 b
b0 o
b10 A
b10 J
b11 @
b11 K
b11 N
b1 m
b0 l
b10000010000011 )
b10000010000011 U
b10000010000011 r
b1000 0
b1000 ]
b1000 c
b1000 /
b1000 \
b1000 _
b1000 g
b100 -
b100 ^
b100 i
b100 ,
b100 V
b100 d
b100 e
b100 h
1!
#20
0!
#25
b10001 &
b10001 [
b10001 n
b10001 (
b10001 T
b10001 X
0#
b10100 5
b10100 :
b10100 R
b10100 W
b10100 9
b10100 $
b10100 =
b10100 `
b10100 2
b10100 a
b10100 j
b10100 s
bx *
bx S
bx b
bx o
b10 m
b10100 l
b1010000000010000100000011 )
b1010000000010000100000011 U
b1010000000010000100000011 r
b1100 0
b1100 ]
b1100 c
b1100 /
b1100 \
b1100 _
b1100 g
b11100 -
b11100 ^
b11100 i
b1000 ,
b1000 V
b1000 d
b1000 e
b1000 h
1!
#30
0!
#35
bx (
bx T
bx X
0'
b111001 5
b111001 :
b111001 R
b111001 W
b111001 9
b101000 $
b101000 =
b101000 `
b111001 &
b111001 [
b111001 n
b101000 2
b101000 a
b101000 j
b101000 s
b1 3
b1 F
b1 P
b1 q
11
b0 %
b0 D
b0 O
b0 Z
b11 *
b11 S
b11 b
b11 o
b10001 +
b10001 ?
b10001 p
b100011 @
b100011 K
b100011 N
b1000 m
b1 l
b10 k
b10000100010010010000100011 )
b10000100010010010000100011 U
b10000100010010010000100011 r
b10000 0
b10000 ]
b10000 c
b10000 /
b10000 \
b10000 _
b10000 g
b110100 -
b110100 ^
b110100 i
b1100 ,
b1100 V
b1100 d
b1100 e
b1100 h
1!
#40
0!
#45
b1 &
b1 [
b1 n
b1 5
b1 :
b1 R
b1 W
1'
b1 $
b1 =
b1 `
b10 H
b10 L
b10 Q
b1 9
b1 2
b1 a
b1 j
b1 s
b0 3
b0 F
b0 P
b0 q
01
b0 +
b0 ?
b0 p
b0 A
b0 J
b10011 @
b10011 K
b10011 N
b0 m
b0 k
b100000000000000010011 )
b100000000000000010011 U
b100000000000000010011 r
b111 (
b111 T
b111 X
b10100 0
b10100 ]
b10100 c
b10100 /
b10100 \
b10100 _
b10100 g
b10001 -
b10001 ^
b10001 i
b10000 ,
b10000 V
b10000 d
b10000 e
b10000 h
1!
#50
0!
#55
x8
x;
x#
x7
b11 3
b11 F
b11 P
b11 q
b0 H
b0 L
b0 Q
x<
b11111111111111111111111111101100 $
b11111111111111111111111111101100 =
b11111111111111111111111111101100 `
1.
b10 %
b10 D
b10 O
b10 Z
bx (
bx T
bx X
b11000 &
b11000 [
b11000 n
b11111111111111111111111111101100 2
b11111111111111111111111111101100 a
b11111111111111111111111111101100 j
b11111111111111111111111111101100 s
1E
bx *
bx S
bx b
bx o
bx 5
bx :
bx R
bx W
1B
b111 A
b111 J
b1101111 @
b1101111 K
b1101111 N
b110 m
b1101 l
b11111 k
bx 9
b11111110110111111111001101101111 )
b11111110110111111111001101101111 U
b11111110110111111111001101101111 r
b0 0
b0 ]
b0 c
bx +
bx ?
bx p
b11000 /
b11000 \
b11000 _
b11000 g
b0 -
b0 ^
b0 i
b10100 ,
b10100 V
b10100 d
b10100 e
b10100 h
1!
#60
0!
#65
bx (
bx T
bx X
08
1;
0#
b10100 $
b10100 =
b10100 `
b1 6
b1 >
b1 I
b1 M
b11111111111111111111111111101101 5
b11111111111111111111111111101101 :
b11111111111111111111111111101101 R
b11111111111111111111111111101101 W
17
b11000 2
b11000 a
b11000 j
b11000 s
b11111111111111111111111111101101 9
1<
0'
b10 3
b10 F
b10 P
b10 q
0.
04
b0 %
b0 D
b0 O
b0 Z
0C
b1 H
b1 L
b1 Q
0E
1G
b10100 *
b10100 S
b10100 b
b10100 o
b1 +
b1 ?
b1 p
b11111111111111111111111111101101 &
b11111111111111111111111111101101 [
b11111111111111111111111111101101 n
0B
b0 A
b0 J
b1100011 @
b1100011 K
b1100011 N
b11000 m
b101 l
b0 k
b10100000000110001100011 )
b10100000000110001100011 U
b10100000000110001100011 r
b100 0
b100 ]
b100 c
b100 /
b100 \
b100 _
b100 g
b11000 -
b11000 ^
b11000 i
b0 ,
b0 V
b0 d
b0 e
b0 h
1!
#70
0!
#75
0;
b111 (
b111 T
b111 X
0#
b1 5
b1 :
b1 R
b1 W
07
b1 9
0<
1'
b0 2
b0 a
b0 j
b0 s
b0 6
b0 >
b0 I
b0 M
b0 3
b0 F
b0 P
b0 q
14
b111 &
b111 [
b111 n
b0 H
b0 L
b0 Q
b0 $
b0 =
b0 `
b1 %
b1 D
b1 O
b1 Z
0G
b1 *
b1 S
b1 b
b1 o
b10 A
b10 J
b11 @
b11 K
b11 N
b1 m
b0 l
b10000010000011 )
b10000010000011 U
b10000010000011 r
b1000 0
b1000 ]
b1000 c
b1000 /
b1000 \
b1000 _
b1000 g
b100 -
b100 ^
b100 i
b100 ,
b100 V
b100 d
b100 e
b100 h
1!
#80
0!
#85
b1101 &
b1101 [
b1101 n
b1101 (
b1101 T
b1101 X
b10101 5
b10101 :
b10101 R
b10101 W
b10101 9
b10100 $
b10100 =
b10100 `
b10100 2
b10100 a
b10100 j
b10100 s
bx *
bx S
bx b
bx o
b10 m
b10100 l
b1010000000010000100000011 )
b1010000000010000100000011 U
b1010000000010000100000011 r
b1100 0
b1100 ]
b1100 c
b1100 /
b1100 \
b1100 _
b1100 g
b11100 -
b11100 ^
b11100 i
b1000 ,
b1000 V
b1000 d
b1000 e
b1000 h
1!
#90
0!
#95
bx (
bx T
bx X
0'
b110101 5
b110101 :
b110101 R
b110101 W
b110101 9
b101000 $
b101000 =
b101000 `
b110101 &
b110101 [
b110101 n
b101000 2
b101000 a
b101000 j
b101000 s
b1 3
b1 F
b1 P
b1 q
11
b0 %
b0 D
b0 O
b0 Z
b111 *
b111 S
b111 b
b111 o
b1101 +
b1101 ?
b1101 p
b100011 @
b100011 K
b100011 N
b1000 m
b1 l
b10 k
b10000100010010010000100011 )
b10000100010010010000100011 U
b10000100010010010000100011 r
b10000 0
b10000 ]
b10000 c
b10000 /
b10000 \
b10000 _
b10000 g
b110100 -
b110100 ^
b110100 i
b1100 ,
b1100 V
b1100 d
b1100 e
b1100 h
1!
#100
0!
#105
b10 &
b10 [
b10 n
b10 5
b10 :
b10 R
b10 W
1'
b1 $
b1 =
b1 `
b10 H
b10 L
b10 Q
b10 9
b1 2
b1 a
b1 j
b1 s
b0 3
b0 F
b0 P
b0 q
01
b1 +
b1 ?
b1 p
b0 A
b0 J
b10011 @
b10011 K
b10011 N
b0 m
b0 k
b100000000000000010011 )
b100000000000000010011 U
b100000000000000010011 r
b10 (
b10 T
b10 X
b10100 0
b10100 ]
b10100 c
b10100 /
b10100 \
b10100 _
b10100 g
b10001 -
b10001 ^
b10001 i
b10000 ,
b10000 V
b10000 d
b10000 e
b10000 h
1!
#110
0!
#115
x8
x;
x#
x7
b11 3
b11 F
b11 P
b11 q
b0 H
b0 L
b0 Q
x<
b11111111111111111111111111101100 $
b11111111111111111111111111101100 =
b11111111111111111111111111101100 `
1.
b10 %
b10 D
b10 O
b10 Z
bx (
bx T
bx X
b11000 &
b11000 [
b11000 n
b11111111111111111111111111101100 2
b11111111111111111111111111101100 a
b11111111111111111111111111101100 j
b11111111111111111111111111101100 s
1E
bx *
bx S
bx b
bx o
bx 5
bx :
bx R
bx W
1B
b111 A
b111 J
b1101111 @
b1101111 K
b1101111 N
b110 m
b1101 l
b11111 k
bx 9
b11111110110111111111001101101111 )
b11111110110111111111001101101111 U
b11111110110111111111001101101111 r
b0 0
b0 ]
b0 c
bx +
bx ?
bx p
b11000 /
b11000 \
b11000 _
b11000 g
b0 -
b0 ^
b0 i
b10100 ,
b10100 V
b10100 d
b10100 e
b10100 h
1!
#120
0!
#125
bx (
bx T
bx X
08
1;
0#
b10100 $
b10100 =
b10100 `
b1 6
b1 >
b1 I
b1 M
b11111111111111111111111111101110 5
b11111111111111111111111111101110 :
b11111111111111111111111111101110 R
b11111111111111111111111111101110 W
17
b11000 2
b11000 a
b11000 j
b11000 s
b11111111111111111111111111101110 9
1<
0'
b10 3
b10 F
b10 P
b10 q
0.
04
b0 %
b0 D
b0 O
b0 Z
0C
b1 H
b1 L
b1 Q
0E
1G
b10100 *
b10100 S
b10100 b
b10100 o
b10 +
b10 ?
b10 p
b11111111111111111111111111101110 &
b11111111111111111111111111101110 [
b11111111111111111111111111101110 n
0B
b0 A
b0 J
b1100011 @
b1100011 K
b1100011 N
b11000 m
b101 l
b0 k
b10100000000110001100011 )
b10100000000110001100011 U
b10100000000110001100011 r
b100 0
b100 ]
b100 c
b100 /
b100 \
b100 _
b100 g
b11000 -
b11000 ^
b11000 i
b0 ,
b0 V
b0 d
b0 e
b0 h
1!
#130
0!
#135
0;
b10 (
b10 T
b10 X
0#
b10 5
b10 :
b10 R
b10 W
07
b10 9
0<
1'
b0 2
b0 a
b0 j
b0 s
b0 6
b0 >
b0 I
b0 M
b0 3
b0 F
b0 P
b0 q
14
b10 &
b10 [
b10 n
b0 H
b0 L
b0 Q
b0 $
b0 =
b0 `
b1 %
b1 D
b1 O
b1 Z
0G
b10 *
b10 S
b10 b
b10 o
b10 A
b10 J
b11 @
b11 K
b11 N
b1 m
b0 l
b10000010000011 )
b10000010000011 U
b10000010000011 r
b1000 0
b1000 ]
b1000 c
b1000 /
b1000 \
b1000 _
b1000 g
b100 -
b100 ^
b100 i
b100 ,
b100 V
b100 d
b100 e
b100 h
1!
#140
0!
#145
b10010 &
b10010 [
b10010 n
b10010 (
b10010 T
b10010 X
b10110 5
b10110 :
b10110 R
b10110 W
b10110 9
b10100 $
b10100 =
b10100 `
b10100 2
b10100 a
b10100 j
b10100 s
bx *
bx S
bx b
bx o
b10 m
b10100 l
b1010000000010000100000011 )
b1010000000010000100000011 U
b1010000000010000100000011 r
b1100 0
b1100 ]
b1100 c
b1100 /
b1100 \
b1100 _
b1100 g
b11100 -
b11100 ^
b11100 i
b1000 ,
b1000 V
b1000 d
b1000 e
b1000 h
1!
#150
0!
#155
bx (
bx T
bx X
0'
b111010 5
b111010 :
b111010 R
b111010 W
b111010 9
b101000 $
b101000 =
b101000 `
b111010 &
b111010 [
b111010 n
b101000 2
b101000 a
b101000 j
b101000 s
b1 3
b1 F
b1 P
b1 q
11
b0 %
b0 D
b0 O
b0 Z
b10 *
b10 S
b10 b
b10 o
b10010 +
b10010 ?
b10010 p
b100011 @
b100011 K
b100011 N
b1000 m
b1 l
b10 k
b10000100010010010000100011 )
b10000100010010010000100011 U
b10000100010010010000100011 r
b10000 0
b10000 ]
b10000 c
b10000 /
b10000 \
b10000 _
b10000 g
b110100 -
b110100 ^
b110100 i
b1100 ,
b1100 V
b1100 d
b1100 e
b1100 h
1!
#160
0!
#165
b11 &
b11 [
b11 n
b11 5
b11 :
b11 R
b11 W
1'
b1 $
b1 =
b1 `
b10 H
b10 L
b10 Q
b11 9
b1 2
b1 a
b1 j
b1 s
b0 3
b0 F
b0 P
b0 q
01
b10 +
b10 ?
b10 p
b0 A
b0 J
b10011 @
b10011 K
b10011 N
b0 m
b0 k
b100000000000000010011 )
b100000000000000010011 U
b100000000000000010011 r
b110 (
b110 T
b110 X
b10100 0
b10100 ]
b10100 c
b10100 /
b10100 \
b10100 _
b10100 g
b10001 -
b10001 ^
b10001 i
b10000 ,
b10000 V
b10000 d
b10000 e
b10000 h
1!
#170
0!
#175
x8
x;
x#
x7
b11 3
b11 F
b11 P
b11 q
b0 H
b0 L
b0 Q
x<
b11111111111111111111111111101100 $
b11111111111111111111111111101100 =
b11111111111111111111111111101100 `
1.
b10 %
b10 D
b10 O
b10 Z
bx (
bx T
bx X
b11000 &
b11000 [
b11000 n
b11111111111111111111111111101100 2
b11111111111111111111111111101100 a
b11111111111111111111111111101100 j
b11111111111111111111111111101100 s
1E
bx *
bx S
bx b
bx o
bx 5
bx :
bx R
bx W
1B
b111 A
b111 J
b1101111 @
b1101111 K
b1101111 N
b110 m
b1101 l
b11111 k
bx 9
b11111110110111111111001101101111 )
b11111110110111111111001101101111 U
b11111110110111111111001101101111 r
b0 0
b0 ]
b0 c
bx +
bx ?
bx p
b11000 /
b11000 \
b11000 _
b11000 g
b0 -
b0 ^
b0 i
b10100 ,
b10100 V
b10100 d
b10100 e
b10100 h
1!
#180
0!
#185
bx (
bx T
bx X
08
1;
0#
b10100 $
b10100 =
b10100 `
b1 6
b1 >
b1 I
b1 M
b11111111111111111111111111101111 5
b11111111111111111111111111101111 :
b11111111111111111111111111101111 R
b11111111111111111111111111101111 W
17
b11000 2
b11000 a
b11000 j
b11000 s
b11111111111111111111111111101111 9
1<
0'
b10 3
b10 F
b10 P
b10 q
0.
04
b0 %
b0 D
b0 O
b0 Z
0C
b1 H
b1 L
b1 Q
0E
1G
b10100 *
b10100 S
b10100 b
b10100 o
b11 +
b11 ?
b11 p
b11111111111111111111111111101111 &
b11111111111111111111111111101111 [
b11111111111111111111111111101111 n
0B
b0 A
b0 J
b1100011 @
b1100011 K
b1100011 N
b11000 m
b101 l
b0 k
b10100000000110001100011 )
b10100000000110001100011 U
b10100000000110001100011 r
b100 0
b100 ]
b100 c
b100 /
b100 \
b100 _
b100 g
b11000 -
b11000 ^
b11000 i
b0 ,
b0 V
b0 d
b0 e
b0 h
1!
#190
0!
#195
0;
b110 (
b110 T
b110 X
0#
b11 5
b11 :
b11 R
b11 W
07
b11 9
0<
1'
b0 2
b0 a
b0 j
b0 s
b0 6
b0 >
b0 I
b0 M
b0 3
b0 F
b0 P
b0 q
14
b110 &
b110 [
b110 n
b0 H
b0 L
b0 Q
b0 $
b0 =
b0 `
b1 %
b1 D
b1 O
b1 Z
0G
b11 *
b11 S
b11 b
b11 o
b10 A
b10 J
b11 @
b11 K
b11 N
b1 m
b0 l
b10000010000011 )
b10000010000011 U
b10000010000011 r
b1000 0
b1000 ]
b1000 c
b1000 /
b1000 \
b1000 _
b1000 g
b100 -
b100 ^
b100 i
b100 ,
b100 V
b100 d
b100 e
b100 h
1!
#200
0!
#205
b1110 &
b1110 [
b1110 n
b1110 (
b1110 T
b1110 X
b10111 5
b10111 :
b10111 R
b10111 W
b10111 9
b10100 $
b10100 =
b10100 `
b10100 2
b10100 a
b10100 j
b10100 s
bx *
bx S
bx b
bx o
b10 m
b10100 l
b1010000000010000100000011 )
b1010000000010000100000011 U
b1010000000010000100000011 r
b1100 0
b1100 ]
b1100 c
b1100 /
b1100 \
b1100 _
b1100 g
b11100 -
b11100 ^
b11100 i
b1000 ,
b1000 V
b1000 d
b1000 e
b1000 h
1!
#210
0!
#215
bx (
bx T
bx X
0'
b110110 5
b110110 :
b110110 R
b110110 W
b110110 9
b101000 $
b101000 =
b101000 `
b110110 &
b110110 [
b110110 n
b101000 2
b101000 a
b101000 j
b101000 s
b1 3
b1 F
b1 P
b1 q
11
b0 %
b0 D
b0 O
b0 Z
b110 *
b110 S
b110 b
b110 o
b1110 +
b1110 ?
b1110 p
b100011 @
b100011 K
b100011 N
b1000 m
b1 l
b10 k
b10000100010010010000100011 )
b10000100010010010000100011 U
b10000100010010010000100011 r
b10000 0
b10000 ]
b10000 c
b10000 /
b10000 \
b10000 _
b10000 g
b110100 -
b110100 ^
b110100 i
b1100 ,
b1100 V
b1100 d
b1100 e
b1100 h
1!
#220
0!
#225
b100 &
b100 [
b100 n
b100 5
b100 :
b100 R
b100 W
1'
b1 $
b1 =
b1 `
b10 H
b10 L
b10 Q
b100 9
b1 2
b1 a
b1 j
b1 s
b0 3
b0 F
b0 P
b0 q
01
b11 +
b11 ?
b11 p
b0 A
b0 J
b10011 @
b10011 K
b10011 N
b0 m
b0 k
b100000000000000010011 )
b100000000000000010011 U
b100000000000000010011 r
b101 (
b101 T
b101 X
b10100 0
b10100 ]
b10100 c
b10100 /
b10100 \
b10100 _
b10100 g
b10001 -
b10001 ^
b10001 i
b10000 ,
b10000 V
b10000 d
b10000 e
b10000 h
1!
#230
0!
#235
x8
x;
x#
x7
b11 3
b11 F
b11 P
b11 q
b0 H
b0 L
b0 Q
x<
b11111111111111111111111111101100 $
b11111111111111111111111111101100 =
b11111111111111111111111111101100 `
1.
b10 %
b10 D
b10 O
b10 Z
bx (
bx T
bx X
b11000 &
b11000 [
b11000 n
b11111111111111111111111111101100 2
b11111111111111111111111111101100 a
b11111111111111111111111111101100 j
b11111111111111111111111111101100 s
1E
bx *
bx S
bx b
bx o
bx 5
bx :
bx R
bx W
1B
b111 A
b111 J
b1101111 @
b1101111 K
b1101111 N
b110 m
b1101 l
b11111 k
bx 9
b11111110110111111111001101101111 )
b11111110110111111111001101101111 U
b11111110110111111111001101101111 r
b0 0
b0 ]
b0 c
bx +
bx ?
bx p
b11000 /
b11000 \
b11000 _
b11000 g
b0 -
b0 ^
b0 i
b10100 ,
b10100 V
b10100 d
b10100 e
b10100 h
1!
#240
0!
#245
bx (
bx T
bx X
08
1;
0#
b10100 $
b10100 =
b10100 `
b1 6
b1 >
b1 I
b1 M
b11111111111111111111111111110000 5
b11111111111111111111111111110000 :
b11111111111111111111111111110000 R
b11111111111111111111111111110000 W
17
b11000 2
b11000 a
b11000 j
b11000 s
b11111111111111111111111111110000 9
1<
0'
b10 3
b10 F
b10 P
b10 q
0.
04
b0 %
b0 D
b0 O
b0 Z
0C
b1 H
b1 L
b1 Q
0E
1G
b10100 *
b10100 S
b10100 b
b10100 o
b100 +
b100 ?
b100 p
b11111111111111111111111111110000 &
b11111111111111111111111111110000 [
b11111111111111111111111111110000 n
0B
b0 A
b0 J
b1100011 @
b1100011 K
b1100011 N
b11000 m
b101 l
b0 k
b10100000000110001100011 )
b10100000000110001100011 U
b10100000000110001100011 r
b100 0
b100 ]
b100 c
b100 /
b100 \
b100 _
b100 g
b11000 -
b11000 ^
b11000 i
b0 ,
b0 V
b0 d
b0 e
b0 h
1!
#250
0!
#255
0;
b101 (
b101 T
b101 X
0#
b100 5
b100 :
b100 R
b100 W
07
b100 9
0<
1'
b0 2
b0 a
b0 j
b0 s
b0 6
b0 >
b0 I
b0 M
b0 3
b0 F
b0 P
b0 q
14
b101 &
b101 [
b101 n
b0 H
b0 L
b0 Q
b0 $
b0 =
b0 `
b1 %
b1 D
b1 O
b1 Z
0G
b100 *
b100 S
b100 b
b100 o
b10 A
b10 J
b11 @
b11 K
b11 N
b1 m
b0 l
b10000010000011 )
b10000010000011 U
b10000010000011 r
b1000 0
b1000 ]
b1000 c
b1000 /
b1000 \
b1000 _
b1000 g
b100 -
b100 ^
b100 i
b100 ,
b100 V
b100 d
b100 e
b100 h
1!
#260
0!
#265
b1111 &
b1111 [
b1111 n
b1111 (
b1111 T
b1111 X
b11000 5
b11000 :
b11000 R
b11000 W
b11000 9
b10100 $
b10100 =
b10100 `
b10100 2
b10100 a
b10100 j
b10100 s
bx *
bx S
bx b
bx o
b10 m
b10100 l
b1010000000010000100000011 )
b1010000000010000100000011 U
b1010000000010000100000011 r
b1100 0
b1100 ]
b1100 c
b1100 /
b1100 \
b1100 _
b1100 g
b11100 -
b11100 ^
b11100 i
b1000 ,
b1000 V
b1000 d
b1000 e
b1000 h
1!
#270
0!
#275
bx (
bx T
bx X
0'
b110111 5
b110111 :
b110111 R
b110111 W
b110111 9
b101000 $
b101000 =
b101000 `
b110111 &
b110111 [
b110111 n
b101000 2
b101000 a
b101000 j
b101000 s
b1 3
b1 F
b1 P
b1 q
11
b0 %
b0 D
b0 O
b0 Z
b101 *
b101 S
b101 b
b101 o
b1111 +
b1111 ?
b1111 p
b100011 @
b100011 K
b100011 N
b1000 m
b1 l
b10 k
b10000100010010010000100011 )
b10000100010010010000100011 U
b10000100010010010000100011 r
b10000 0
b10000 ]
b10000 c
b10000 /
b10000 \
b10000 _
b10000 g
b110100 -
b110100 ^
b110100 i
b1100 ,
b1100 V
b1100 d
b1100 e
b1100 h
1!
#280
0!
#285
b101 &
b101 [
b101 n
b101 5
b101 :
b101 R
b101 W
1'
b1 $
b1 =
b1 `
b10 H
b10 L
b10 Q
b101 9
b1 2
b1 a
b1 j
b1 s
b0 3
b0 F
b0 P
b0 q
01
b100 +
b100 ?
b100 p
b0 A
b0 J
b10011 @
b10011 K
b10011 N
b0 m
b0 k
b100000000000000010011 )
b100000000000000010011 U
b100000000000000010011 r
b100 (
b100 T
b100 X
b10100 0
b10100 ]
b10100 c
b10100 /
b10100 \
b10100 _
b10100 g
b10001 -
b10001 ^
b10001 i
b10000 ,
b10000 V
b10000 d
b10000 e
b10000 h
1!
#290
0!
#295
x8
x;
x#
x7
b11 3
b11 F
b11 P
b11 q
b0 H
b0 L
b0 Q
x<
b11111111111111111111111111101100 $
b11111111111111111111111111101100 =
b11111111111111111111111111101100 `
1.
b10 %
b10 D
b10 O
b10 Z
bx (
bx T
bx X
b11000 &
b11000 [
b11000 n
b11111111111111111111111111101100 2
b11111111111111111111111111101100 a
b11111111111111111111111111101100 j
b11111111111111111111111111101100 s
1E
bx *
bx S
bx b
bx o
bx 5
bx :
bx R
bx W
1B
b111 A
b111 J
b1101111 @
b1101111 K
b1101111 N
b110 m
b1101 l
b11111 k
bx 9
b11111110110111111111001101101111 )
b11111110110111111111001101101111 U
b11111110110111111111001101101111 r
b0 0
b0 ]
b0 c
bx +
bx ?
bx p
b11000 /
b11000 \
b11000 _
b11000 g
b0 -
b0 ^
b0 i
b10100 ,
b10100 V
b10100 d
b10100 e
b10100 h
1!
#300
0!
#305
bx (
bx T
bx X
08
1;
0#
b10100 $
b10100 =
b10100 `
b1 6
b1 >
b1 I
b1 M
b11111111111111111111111111110001 5
b11111111111111111111111111110001 :
b11111111111111111111111111110001 R
b11111111111111111111111111110001 W
17
b11000 2
b11000 a
b11000 j
b11000 s
b11111111111111111111111111110001 9
1<
0'
b10 3
b10 F
b10 P
b10 q
0.
04
b0 %
b0 D
b0 O
b0 Z
0C
b1 H
b1 L
b1 Q
0E
1G
b10100 *
b10100 S
b10100 b
b10100 o
b101 +
b101 ?
b101 p
b11111111111111111111111111110001 &
b11111111111111111111111111110001 [
b11111111111111111111111111110001 n
0B
b0 A
b0 J
b1100011 @
b1100011 K
b1100011 N
b11000 m
b101 l
b0 k
b10100000000110001100011 )
b10100000000110001100011 U
b10100000000110001100011 r
b100 0
b100 ]
b100 c
b100 /
b100 \
b100 _
b100 g
b11000 -
b11000 ^
b11000 i
b0 ,
b0 V
b0 d
b0 e
b0 h
1!
#310
0!
